# 100
4 2
9 2
16 2
25 2
36 2
49 2
64 2
81 2
100 2
121 2
144 2
169 2
196 2
225 2
256 2
289 2
324 2
361 2
400 2
441 2
484 2
529 2
576 2
625 2
676 2
729 2
784 2
841 2
900 2
961 2
1024 2
1089 2
1156 2
1225 2
1296 2
1369 2
1444 2
1521 2
1600 2
1681 2
1764 2
1849 2
1936 2
2025 2
2116 2
2209 2
2304 2
2401 2
2500 1
