\relax 
\citation{micha_turbulent_2004}
\@writefile{toc}{\contentsline {section}{\numberline {1}Introduction}{1}\protected@file@percent }
\citation{Peskin:1995ev}
\citation{berges_introduction_2004}
\@writefile{toc}{\contentsline {section}{\numberline {2}Theory}{2}\protected@file@percent }
\newlabel{sec:Theory}{{2}{2}}
\@writefile{toc}{\contentsline {subsection}{\numberline {2.1}Linear sigma model}{2}\protected@file@percent }
\newlabel{ssec:sigma}{{2.1}{2}}
\newlabel{eqn:eom}{{5}{2}}
\@writefile{toc}{\contentsline {subsection}{\numberline {2.2}Free theory}{2}\protected@file@percent }
\newlabel{ssec:freeTheory}{{2.2}{2}}
\newlabel{equ:twopoint}{{13}{2}}
\citation{berges_introduction_2004}
\citation{leapfrog}
\newlabel{eqn:Fttwo}{{17}{3}}
\@writefile{toc}{\contentsline {subsection}{\numberline {2.3}Interacting theory}{3}\protected@file@percent }
\newlabel{ssec:InteractTheory}{{2.3}{3}}
\newlabel{equ:energy}{{19}{3}}
\@writefile{toc}{\contentsline {section}{\numberline {3}Numerical methods}{3}\protected@file@percent }
\newlabel{sec:Numerics}{{3}{3}}
\@writefile{toc}{\contentsline {subsection}{\numberline {3.1}Leap frog integration}{3}\protected@file@percent }
\@writefile{toc}{\contentsline {subsubsection}{\numberline {3.1.1}Implementation check}{4}\protected@file@percent }
\@writefile{toc}{\contentsline {subsection}{\numberline {3.2}Fourier transformation}{4}\protected@file@percent }
\@writefile{toc}{\contentsline {subsection}{\numberline {3.3}Initial conditions}{4}\protected@file@percent }
\citation{leapfrog}
\@writefile{toc}{\contentsline {subsection}{\numberline {3.4}Particle number}{5}\protected@file@percent }
\@writefile{toc}{\contentsline {section}{\numberline {4}Results}{5}\protected@file@percent }
\newlabel{sec:Results}{{4}{5}}
\@writefile{toc}{\contentsline {subsection}{\numberline {4.1}Energy conservation}{5}\protected@file@percent }
\@writefile{lof}{\contentsline {figure}{\numberline {1}{\ignorespaces Comparison of energy oscillation during leap frog integration for two integration step sizes: Left figure $dt=0.02$ and right figure $dt=0.002$. Simulation parameters: $N_x=20$, dim$=3$, $a=1$, $M=1$, $N=4$, $\lambda =4$, Fields are deterministically initialized (without any fluctuations) with expectation values $\langle \phi ^0 \rangle = 5$ and $\langle \phi ^{a \neq  0} \rangle = 1$.\relax }}{5}\protected@file@percent }
\providecommand*\caption@xref[2]{\@setref\relax\@undefined{#1}}
\newlabel{fig:econs}{{1}{5}}
\@writefile{toc}{\contentsline {subsection}{\numberline {4.2}Field oscillations}{6}\protected@file@percent }
\@writefile{lof}{\contentsline {figure}{\numberline {2}{\ignorespaces Comparison of field oscillations for the free and interacting $O(4)$ model. Shown are $\langle \phi \rangle $ and $var(\phi ) = \langle \phi ^2 \rangle - \langle \phi \rangle ^2$ for each component. Left Fig. $\lambda =0$ and right Fig. $\lambda =4$. Simulation parameters: $N_x=20$, dim$=3$, $a=1$, $dt=0.002$, $N=4$, Fields are deterministically initialized (without any fluctuations) with expectation values $\langle \phi ^0 \rangle = 5$ and $\langle \phi ^{a \neq  0} \rangle = 1$.\relax }}{6}\protected@file@percent }
\newlabel{fig:fosz}{{2}{6}}
\@writefile{lof}{\contentsline {figure}{\numberline {3}{\ignorespaces Field oscillations for an interacting field with initial fluctuations in the $O(4)$ model. The left figure shows $\langle \phi \rangle $ and $var(\phi ) = \langle \phi ^2 \rangle - \langle \phi \rangle ^2$ for each component. The right figure shows the amplitude of $\langle \phi \rangle $ and also $var(\phi ) = \langle \phi ^2 \rangle - \langle \phi \rangle ^2$ for each component. Simulation parameters: $N_x=20$, dim$=3$, $a=1$, $dt=0.002$, $N=4$, $\lambda =0.1$, $\langle \phi ^0 \rangle = 10$ and $\langle \phi ^{a \neq  0} \rangle = 0$.\relax }}{6}\protected@file@percent }
\newlabel{fig:foszfluct}{{3}{6}}
\citation{micha_turbulent_2004}
\citation{micha_turbulent_2004}
\citation{micha_turbulent_2004}
\@writefile{toc}{\contentsline {subsection}{\numberline {4.3}Initial fluctuations}{7}\protected@file@percent }
\@writefile{lof}{\contentsline {figure}{\numberline {4}{\ignorespaces Initialized fluctuations for the $O(4)$ model. The only relevant parameter is the Mass $M=1$.\relax }}{7}\protected@file@percent }
\newlabel{fig:startfluc}{{4}{7}}
\@writefile{toc}{\contentsline {subsection}{\numberline {4.4}Particle number}{7}\protected@file@percent }
\@writefile{toc}{\contentsline {subsection}{\numberline {4.5}Fourier transform of two-point function}{7}\protected@file@percent }
\@writefile{toc}{\contentsline {section}{\numberline {5}Conclusion}{7}\protected@file@percent }
\newlabel{sec:Concl}{{5}{7}}
\@writefile{lof}{\contentsline {figure}{\numberline {5}{\ignorespaces Occupation number per mode for the four field components. Shown are four time steps $t=0$, $13.2$, $26.6$ and $39.8$. Simulation parameters: $N_x=20$, dim$=3$, $a=1$, $dt=0.002$, $N=4$, $\lambda =0.1$, $\langle \phi ^0 \rangle = 10$ and $\langle \phi ^{a \neq  0} \rangle = 0$.\relax }}{8}\protected@file@percent }
\newlabel{fig:occu}{{5}{8}}
\@writefile{toc}{\contentsline {section}{\numberline {A}Initialisation}{8}\protected@file@percent }
\newlabel{sec:init}{{A}{8}}
\@writefile{toc}{\contentsline {subsection}{\numberline {A.1}Coordinate space initialisation}{8}\protected@file@percent }
\bibstyle{unsrt}
\bibdata{bib/biblio.bib}
\bibcite{micha_turbulent_2004}{1}
\bibcite{Peskin:1995ev}{2}
\bibcite{berges_introduction_2004}{3}
\@writefile{lof}{\contentsline {figure}{\numberline {6}{\ignorespaces Fourier transform of the two-point function. Simulation parameters: $N_x=20$, dim$=3$, $a=1$, $dt=0.002$, $N=4$, $\lambda =0.1$, $\langle \phi ^0 \rangle = 10$ and $\langle \phi ^{a \neq  0} \rangle = 0$.\relax }}{9}\protected@file@percent }
\newlabel{fig:F}{{6}{9}}
\@writefile{toc}{\contentsline {subsection}{\numberline {A.2}Fourier space initialisation}{9}\protected@file@percent }
\bibcite{leapfrog}{4}
