\begin{thebibliography}{1}

\bibitem{micha_turbulent_2004}
Raphael Micha and Igor~I. Tkachev.
\newblock Turbulent {Thermalization}.
\newblock {\em arXiv:hep-ph/0403101}, March 2004.
\newblock arXiv: hep-ph/0403101.

\bibitem{Peskin:1995ev}
Michael~E. Peskin and Daniel~V. Schroeder.
\newblock {\em {An Introduction to quantum field theory}}.
\newblock Addison-Wesley, Reading, USA, 1995.

\bibitem{berges_introduction_2004}
J.~Berges.
\newblock Introduction to {Nonequilibrium} {Quantum} {Field} {Theory}.
\newblock {\em AIP Conference Proceedings}, 739:3--62, 2004.
\newblock arXiv: hep-ph/0409233.

\bibitem{leapfrog}
Peter Young.
\newblock The leapfrog method and other “symplectic” algorithms for
  integrating newton’s laws of motion.
\newblock \url{https://young.physics.ucsc.edu/115/leapfrog.pdf}, 2014.

\end{thebibliography}
